…
    ## Warning: There were 43 warnings in `mutate()`.
    ## The first warning was:
    ## ℹ In argument: `or_ci = map(data, get_male_or)`.
    ## ℹ In group 1: `city_state = "Albuquerque, NM"`.
    ## Caused by warning:
    ## ! glm.fit: fitted probabilities numerically 0 or 1 occurred
    ## ℹ Run `dplyr::last_dplyr_warnings()` to see the 42 remaining warnings.

``` r
all_cities_or_ci
```

    ## # A tibble: 47 × 4
    ## # Groups:   city_state [47]
    ##    city_state           OR CI_low CI_high
    ##    <chr>             <dbl>  <dbl>   <dbl>
    ##  1 Albuquerque, NM   1.77   0.825    3.76
    ##  2 Stockton, CA      1.35   0.626    2.99
    ##  3 Fresno, CA        1.34   0.567    3.05
    ##  4 Nashville, TN     1.03   0.681    1.56
    ##  5 Richmond, VA      1.01   0.483    1.99
    ##  6 Atlanta, GA       1.00   0.680    1.46
    ##  7 Tulsa, OK         0.976  0.609    1.54
    ##  8 Oklahoma City, OK 0.974  0.623    1.52
    ##  9 Minneapolis, MN   0.947  0.476    1.88
    ## 10 Indianapolis, IN  0.919  0.678    1.24
    ## # ℹ 37 more rows
…
# Perform the 5000 bootstrap iterations
set.seed(42) # For reproducibility
boot_results = weather_df |>
  modelr::bootstrap(n = 5000) |>
  # Apply the function to each bootstrap sample's data
  mutate(metrics = map(strap, get_metrics)) |>
  # Unnest the results into a single data frame
  unnest(metrics)

# Check the first few results
boot_results |>
  select(-strap) 
```

    ## # A tibble: 5,000 × 3
    ##    .id   r_squared beta_ratio
    ##    <chr>     <dbl>      <dbl>
    ##  1 0001      0.940      -175.
    ##  2 0002      0.943      -242.
    ##  3 0003      0.942      -202.
    ##  4 0004      0.943      -164.
    ##  5 0005      0.935      -209.
    ##  6 0006      0.938      -215.
    ##  7 0007      0.940      -143.
    ##  8 0008      0.943      -179.
    ##  9 0009      0.945      -142.
    ## 10 0010      0.939      -238.
    ## # ℹ 4,990 more rows
…
